{
    "appSecret": "6530b20c2249739cc4a94ea18e591985",
    "pageAccessToken": "EAAb4NRR6MaYBABrKSIrSHYLLxmPtGNF0WDHrSIZCR456TKDSVUNZBCc7IOE69ehnLgERlP4tGZBGJqrVGIf8xEGwmVuYynDsYjhAvggAwmHZCwMMnbKZC5PJeEZAZCVAaffBdl7nzZBgmydrVhrpP3YyP8x4CbvhL9QkmCHsWZCaioftGRu0OVHRi",
    "validationToken": "my_token",
    "serverURL": "localhost:80",
    "google_api_key": "AIzaSyD31YaNj1buBW4e4ZS1OLU_FX4liPBo0-k"
}
